<svg width="12" height="16" viewBox="0 0 12 16" fill="none" xmlns="http://www.w3.org/2000/svg">
<path d="M5.99989 0.0722656C4.46017 0.0743821 2.98411 0.686974 1.89536 1.77573C0.806603 2.86448 0.194011 4.34054 0.191895 5.88027C0.191895 7.35227 1.11989 9.43227 2.94389 12.0643C3.78548 13.269 4.69077 14.428 5.65589 15.5363L5.99989 15.9283L6.34389 15.5363C7.30902 14.428 8.2143 13.269 9.05589 12.0643C10.8799 9.43227 11.8079 7.35227 11.8079 5.88027C11.8058 4.34054 11.1932 2.86448 10.1044 1.77573C9.01568 0.686974 7.53962 0.0743821 5.99989 0.0722656ZM8.29589 11.5283C7.39189 12.8243 6.47989 13.9283 5.99989 14.5123C5.51989 13.9443 4.60789 12.8323 3.70389 11.5363C1.99989 9.09627 1.11989 7.14427 1.11989 5.88027C1.11989 4.58601 1.63404 3.34476 2.54921 2.42958C3.46439 1.51441 4.70564 1.00027 5.99989 1.00027C7.29415 1.00027 8.5354 1.51441 9.45057 2.42958C10.3658 3.34476 10.8799 4.58601 10.8799 5.88027C10.8799 7.14427 9.99989 9.09627 8.29589 11.5283Z" fill="#198BFF"/>
<path d="M5.99994 16.0482L5.59194 15.5842C4.62638 14.4763 3.72107 13.3173 2.87994 12.1122C1.03994 9.46419 0.111938 7.36819 0.111938 5.88019C0.111939 4.31859 0.73228 2.82096 1.83649 1.71674C2.94071 0.612529 4.43834 -0.0078125 5.99994 -0.0078125C7.56153 -0.0078125 9.05917 0.612529 10.1634 1.71674C11.2676 2.82096 11.8879 4.31859 11.8879 5.88019C11.8879 7.36819 10.9599 9.46419 9.11994 12.1122C8.2788 13.3173 7.3735 14.4763 6.40794 15.5842L5.99994 16.0482ZM5.99994 0.152187C4.48143 0.154304 3.02572 0.758467 1.95197 1.83222C0.878218 2.90597 0.274055 4.36168 0.271938 5.88019C0.271938 7.33619 1.19994 9.40019 3.01594 12.0002C3.85302 13.2015 4.75294 14.3578 5.71194 15.4642L5.99994 15.7922L6.28794 15.4642C7.24983 14.3602 8.14988 13.2037 8.98394 12.0002C10.8079 9.38419 11.7279 7.32019 11.7279 5.86419C11.7216 4.34845 11.1156 2.89684 10.0423 1.82655C8.96898 0.756253 7.51569 0.154288 5.99994 0.152187ZM5.99994 14.6402L5.93594 14.5682C5.47194 14.0162 4.55994 12.8962 3.63994 11.5762C1.93594 9.12819 1.03994 7.20019 1.03994 5.88019C1.03994 4.56471 1.56251 3.30312 2.49269 2.37294C3.42287 1.44276 4.68446 0.920187 5.99994 0.920187C7.31541 0.920187 8.57701 1.44276 9.50719 2.37294C10.4374 3.30312 10.9599 4.56471 10.9599 5.88019C10.9599 7.16019 10.0639 9.12819 8.35994 11.5682C7.45594 12.8802 6.52794 14.0082 6.06394 14.5682L5.99994 14.6402ZM5.99994 1.08019C4.7269 1.08019 3.506 1.5859 2.60583 2.48607C1.70565 3.38625 1.19994 4.60715 1.19994 5.88019C1.19994 7.12819 2.08794 9.08019 3.77594 11.4802C4.64794 12.7442 5.51994 13.8242 5.99994 14.4002C6.47994 13.8242 7.35994 12.7362 8.23194 11.4882C9.91194 9.08819 10.7999 7.13619 10.7999 5.88819C10.801 5.25717 10.6776 4.63214 10.4369 4.04885C10.1961 3.46556 9.84271 2.93547 9.39688 2.4889C8.95106 2.04233 8.42155 1.68805 7.83867 1.44633C7.25578 1.20461 6.63096 1.08019 5.99994 1.08019Z" fill="#198BFF"/>
<path d="M5.99999 2.22412C5.32086 2.22412 4.657 2.42561 4.09244 2.80308C3.52788 3.18055 3.088 3.71702 2.82847 4.34461C2.56895 4.97219 2.50145 5.66266 2.63453 6.32862C2.7676 6.99458 3.09526 7.60609 3.57604 8.08574C4.05681 8.5654 4.66908 8.89163 5.33535 9.02315C6.00162 9.15467 6.69193 9.08556 7.31891 8.82457C7.94588 8.56359 8.48133 8.12245 8.85748 7.55701C9.23363 6.99157 9.43357 6.32724 9.43199 5.64812C9.42987 4.73928 9.06735 3.8684 8.42395 3.2265C7.78056 2.5846 6.90882 2.22412 5.99999 2.22412ZM5.99999 8.15212C5.50474 8.15212 5.02062 8.00526 4.60884 7.73012C4.19706 7.45498 3.87611 7.06391 3.68659 6.60636C3.49707 6.14881 3.44748 5.64534 3.5441 5.15962C3.64072 4.67389 3.8792 4.22772 4.22939 3.87753C4.57958 3.52734 5.02575 3.28885 5.51148 3.19223C5.99721 3.09562 6.50068 3.14521 6.95822 3.33473C7.41577 3.52425 7.80684 3.84519 8.08199 4.25697C8.35713 4.66875 8.50399 5.15288 8.50399 5.64812C8.50399 6.31222 8.24017 6.94913 7.77058 7.41872C7.30099 7.88831 6.66409 8.15212 5.99999 8.15212Z" fill="#198BFF"/>
<path d="M5.99992 9.16023C5.30531 9.16023 4.6263 8.95426 4.04875 8.56835C3.47121 8.18245 3.02107 7.63395 2.75525 6.99222C2.48944 6.35048 2.41989 5.64434 2.5554 4.96308C2.69091 4.28181 3.0254 3.65604 3.51656 3.16487C4.00772 2.67371 4.6335 2.33923 5.31476 2.20371C5.99602 2.0682 6.70217 2.13775 7.3439 2.40357C7.98564 2.66938 8.53413 3.11952 8.92004 3.69707C9.30594 4.27462 9.51192 4.95362 9.51192 5.64823C9.5098 6.57902 9.13911 7.47109 8.48094 8.12926C7.82277 8.78743 6.93071 9.15812 5.99992 9.16023ZM5.99992 2.30423C5.33661 2.30423 4.68822 2.50103 4.13682 2.86971C3.58541 3.23838 3.15578 3.76237 2.90231 4.37533C2.64885 4.9883 2.58293 5.66268 2.71292 6.31312C2.84291 6.96356 3.16295 7.56082 3.63254 8.02928C4.10212 8.49775 4.70014 8.81636 5.35089 8.9448C6.00164 9.07323 6.67587 9.00571 7.28822 8.75077C7.90058 8.49584 8.42354 8.06496 8.7909 7.51268C9.15826 6.96039 9.3535 6.31153 9.35192 5.64823C9.3498 4.76061 8.99571 3.91007 8.36732 3.28318C7.73892 2.65629 6.88754 2.30423 5.99992 2.30423ZM5.99992 8.23223C5.48885 8.23223 4.98926 8.08068 4.56432 7.79675C4.13939 7.51282 3.80819 7.10925 3.61261 6.63709C3.41704 6.16492 3.36586 5.64537 3.46557 5.14412C3.56527 4.64287 3.81137 4.18245 4.17275 3.82107C4.53413 3.45969 4.99456 3.21359 5.4958 3.11388C5.99705 3.01418 6.51661 3.06535 6.98877 3.26093C7.46094 3.4565 7.8645 3.7877 8.14843 4.21264C8.43237 4.63758 8.58392 5.13717 8.58392 5.64823C8.58392 6.33355 8.31167 6.9908 7.82708 7.4754C7.34249 7.95999 6.68524 8.23223 5.99992 8.23223ZM5.99992 3.20023C5.52524 3.20023 5.06123 3.34099 4.66655 3.60471C4.27187 3.86842 3.96426 4.24325 3.78261 4.68179C3.60096 5.12033 3.55343 5.60289 3.64603 6.06845C3.73864 6.534 3.96721 6.96164 4.30286 7.29729C4.63851 7.63294 5.06615 7.86151 5.5317 7.95412C5.99725 8.04672 6.47981 7.99919 6.91836 7.81754C7.3569 7.63589 7.73173 7.32828 7.99544 6.9336C8.25916 6.53892 8.39992 6.07491 8.39992 5.60023C8.39992 4.96371 8.14706 4.35326 7.69697 3.90318C7.24689 3.45309 6.63644 3.20023 5.99992 3.20023Z" fill="#198BFF"/>
</svg>
