<svg width="25" height="25" viewBox="0 0 25 25" fill="none" xmlns="http://www.w3.org/2000/svg">
<g clip-path="url(#clip0)">
<path d="M23.6186 0.00100708H1.37979C0.61827 0.00100708 0 0.618042 0 1.38079V23.6196C0 24.3823 0.61827 25.0002 1.37979 25.0002H13.3525V15.319H10.0948V11.5456H13.3525V8.76299C13.3525 5.53456 15.3238 3.77566 18.2044 3.77566C19.5854 3.77566 20.7697 3.87898 21.115 3.92385V7.2984L19.117 7.29923C17.5507 7.29923 17.2486 8.04387 17.2486 9.13592V11.5444H20.9854L20.4968 15.3174H17.2482V24.9989H23.6182C24.3805 24.9989 24.9992 24.3803 24.9992 23.6196V1.37997C24.9988 0.618042 24.3809 0.00100708 23.6186 0.00100708Z" fill="#0D1B34"/>
</g>
<defs>
<clipPath id="clip0">
<rect width="25" height="24.9996" fill="white"/>
</clipPath>
</defs>
</svg>
