<svg width="10" height="6" viewBox="0 0 10 6" fill="none" xmlns="http://www.w3.org/2000/svg">
<path d="M5.00375 5.54992C4.83875 5.54992 4.68875 5.48992 4.56875 5.36992L0.818749 1.46992C0.593749 1.22992 0.593746 0.854919 0.833746 0.614919C1.07375 0.389919 1.44876 0.38992 1.68876 0.62992L5.00375 4.07992L8.31877 0.62992C8.54377 0.38992 8.93376 0.389919 9.17376 0.614919C9.41376 0.839919 9.41374 1.22992 9.18874 1.46992L5.43876 5.36992C5.31876 5.48992 5.16875 5.54992 5.00375 5.54992Z" fill="white"/>
</svg>
